Component Order in Learning from Verbal Information
…
3 Analysis

3.1 Error Rates

3.1.1 Preparation (Data Aggregation)

# aggregate dataset for error analysis
data_main_error_agg = data_main %>%
  group_by(ID, verbalResp, reqResp, effectPrime, compOrder) %>%
  summarise(meanError = mean(error)); show(data_main_error_agg)

## `summarise()` has grouped output by 'ID', 'verbalResp', 'reqResp',
## 'effectPrime'. You can override using the `.groups` argument.

## # A tibble: 800 x 6
## # Groups:   ID, verbalResp, reqResp, effectPrime [800]
##    ID       verbalResp reqResp effectPrime compOrder     meanError
##    <fct>    <fct>      <fct>   <fct>       <fct>             <dbl>
##  1 08st56ku right      left    critical    action_effect    0.0833
##  2 08st56ku right      left    neutral     action_effect    0.0833
##  3 08st56ku right      right   critical    action_effect    0.0833
##  4 08st56ku right      right   neutral     action_effect    0.0278
##  5 0bgn83r6 right      left    critical    action_effect    0     
##  6 0bgn83r6 right      left    neutral     action_effect    0     
##  7 0bgn83r6 right      right   critical    action_effect    0.0833
##  8 0bgn83r6 right      right   neutral     action_effect    0     
##  9 0l2h1583 left       left    critical    action_effect    0     
## 10 0l2h1583 left       left    neutral     action_effect    0     
## # ... with 790 more rows
…
3.2 Reaction Times

3.2.1 Preparation (Data Aggregation)

# aggregate dataset for error analysis
data_main_rt_agg = data_main_rt %>%
  group_by(ID, verbalResp, reqResp, effectPrime, compOrder) %>%
  summarise(meanRT = mean(rt)); show(data_main_rt_agg)

## `summarise()` has grouped output by 'ID', 'verbalResp', 'reqResp',
## 'effectPrime'. You can override using the `.groups` argument.

## # A tibble: 800 x 6
## # Groups:   ID, verbalResp, reqResp, effectPrime [800]
##    ID       verbalResp reqResp effectPrime compOrder     meanRT
##    <fct>    <fct>      <fct>   <fct>       <fct>          <dbl>
##  1 08st56ku right      left    critical    action_effect   529.
##  2 08st56ku right      left    neutral     action_effect   612.
##  3 08st56ku right      right   critical    action_effect   625.
##  4 08st56ku right      right   neutral     action_effect   599.
##  5 0bgn83r6 right      left    critical    action_effect   430.
##  6 0bgn83r6 right      left    neutral     action_effect   399.
##  7 0bgn83r6 right      right   critical    action_effect   452.
##  8 0bgn83r6 right      right   neutral     action_effect   430.
##  9 0l2h1583 left       left    critical    action_effect   652.
## 10 0l2h1583 left       left    neutral     action_effect   543.
## # ... with 790 more rows
…
